{
    "file_format_version" : "1.0.0",
    "layer" : {
        "name": "VK_LAYER_vkpipeline_db",
        "type": "GLOBAL",
        "library_path": "libVkLayer_vkpipeline_db.so",
        "api_version": "1.0.61",
        "implementation_version": "1",
        "description": "vkpipeline-db capture layer",
        "functions": {
            "vkGetInstanceProcAddr": "vkpipeline_db_GetInstanceProcAddr",
            "vkGetDeviceProcAddr": "vkpipeline_db_GetDeviceProcAddr"
        },
        "enable_environment": {
            "ENABLE_VKPIPELINE_DB": "1"
        },
        "disable_environment": {
            "DISABLE_VKPIPELINE_DB": "1"
        }
    }
}
